﻿{
  "configurations": [
    {
      "name": "x64-Debug",
      "generator": "Ninja",
      "configurationType": "Debug",
      "inheritEnvironments": [ "msvc_x64_x64" ],
      "buildRoot": "${projectDir}\\out\\build\\${name}",
      "installRoot": "${projectDir}\\out\\install\\${name}",
      "cmakeCommandArgs": "",
      "buildCommandArgs": "-v",
      "ctestCommandArgs": "",
      "variables": [
        {
          "name": "SFML_DIR",
          "value": "C:/Projects/NEWs/ore-chasm/SFML",
          "type": "PATH"
        },
        {
          "name": "SFML_DOC_DIR",
          "value": "C:/Projects/NEWs/ore-chasm/SFML/doc",
          "type": "PATH"
        }
      ]
    }
  ]
}